D:\Java\VoiceChat\voicechat\vcc_2\src\main\java\ru\kpfu\elements\HBoxCell.java
D:\Java\VoiceChat\voicechat\vcc_2\src\main\java\ru\kpfu\controller\RoomsController.java
D:\Java\VoiceChat\voicechat\vcc_2\src\main\java\ru\kpfu\logic\SoundPlayer.java
D:\Java\VoiceChat\voicechat\vcc_2\src\main\java\ru\kpfu\controller\MainController.java
D:\Java\VoiceChat\voicechat\vcc_2\src\main\java\ru\kpfu\logic\ControllersContainer.java
D:\Java\VoiceChat\voicechat\vcc_2\src\main\java\ru\kpfu\app\Main.java
D:\Java\VoiceChat\voicechat\vcc_2\src\main\java\ru\kpfu\threads\ClientMessageHandler.java
D:\Java\VoiceChat\voicechat\vcc_2\src\main\java\ru\kpfu\logic\ClientMain.java
D:\Java\VoiceChat\voicechat\vcc_2\src\main\java\ru\kpfu\controller\RoomController.java
D:\Java\VoiceChat\voicechat\vcc_2\src\main\java\ru\kpfu\dto\Message.java
D:\Java\VoiceChat\voicechat\vcc_2\src\main\java\ru\kpfu\model\Room.java
D:\Java\VoiceChat\voicechat\vcc_2\src\main\java\ru\kpfu\threads\MicrophoneThread.java
