ru\kpfu\App$1.class
ru\kpfu\App$2.class
ru\kpfu\controller\RoomsController.class
ru\kpfu\elements\HBoxCell$1.class
ru\kpfu\threads\MicrophoneThread.class
ru\kpfu\dto\Message.class
ru\kpfu\logic\SoundPlayer.class
ru\kpfu\elements\HBoxCell.class
ru\kpfu\threads\ClientMessageHandler.class
ru\kpfu\controller\RoomController.class
ru\kpfu\App.class
ru\kpfu\controller\MainController.class
ru\kpfu\Main.class
ru\kpfu\logic\ControllersContainer.class
ru\kpfu\logic\ClientMain.class
ru\kpfu\threads\ClientMessageHandler$1.class
ru\kpfu\model\Room.class
